{
  "project_info": {
    "project_number": "206511101719",
    "firebase_url": "https://taxi-app-cbd16.firebaseio.com",
    "project_id": "taxi-app-cbd16",
    "storage_bucket": "taxi-app-cbd16.appspot.com"
  },
  "client": [
    {
      "client_info": {
        "mobilesdk_app_id": "1:206511101719:android:8fe70d001298e6b7",
        "android_client_info": {
          "package_name": "com.taxiapp.prod"
        }
      },
      "oauth_client": [
        {
          "client_id": "206511101719-mibkilfflr70i81rlv26934d6rtjj43q.apps.googleusercontent.com",
          "client_type": 3
        }
      ],
      "api_key": [
        {
          "current_key": "AIzaSyCu_hgP1KyrPFoTQLIixcCftdxs9XBsVz8"
        }
      ],
      "services": {
        "appinvite_service": {
          "other_platform_oauth_client": [
            {
              "client_id": "206511101719-mibkilfflr70i81rlv26934d6rtjj43q.apps.googleusercontent.com",
              "client_type": 3
            }
          ]
        }
      }
    }
  ],
  "configuration_version": "1"
}
